<?xml version="1.0" encoding="utf-8"?>
<!-- Generator: Adobe Illustrator 24.2.3, SVG Export Plug-In . SVG Version: 6.00 Build 0)  -->
<svg version="1.1" id="Layer_1" xmlns="http://www.w3.org/2000/svg" xmlns:xlink="http://www.w3.org/1999/xlink" x="0px" y="0px"
	 viewBox="0 0 50 50" style="enable-background:new 0 0 50 50;" xml:space="preserve">
<style type="text/css">
	.st0{fill:#FFFFFF;}
</style>
<g>
	<path class="st0" d="M49.9,14.7c-0.1-2.7-0.5-4.5-1.2-6.1c-0.6-1.7-1.6-3.2-2.9-4.4c-1.3-1.3-2.8-2.3-4.4-2.9
		c-1.6-0.6-3.4-1-6.1-1.2C32.6,0,31.8,0,25,0s-7.6,0-10.3,0.1C12,0.3,10.2,0.7,8.6,1.3C7,1.9,5.5,2.9,4.2,4.2C2.9,5.5,1.9,7,1.3,8.6
		c-0.6,1.6-1,3.4-1.2,6.1C0,17.4,0,18.2,0,25s0,7.6,0.1,10.3c0.1,2.7,0.5,4.5,1.2,6.1c0.6,1.7,1.6,3.2,2.9,4.4
		c1.3,1.3,2.8,2.3,4.4,2.9c1.6,0.6,3.4,1,6.1,1.2C17.4,50,18.2,50,25,50s7.6,0,10.3-0.1c2.7-0.1,4.5-0.5,6.1-1.2
		c3.4-1.3,6-4,7.3-7.3c0.6-1.6,1-3.4,1.2-6.1C50,32.6,50,31.8,50,25S50,17.4,49.9,14.7z M45.4,35.1c-0.1,2.4-0.5,3.8-0.9,4.6
		c-0.8,2.2-2.6,3.9-4.7,4.7c-0.9,0.3-2.2,0.8-4.6,0.9c-2.6,0.1-3.4,0.1-10.1,0.1s-7.5,0-10.1-0.1c-2.4-0.1-3.8-0.5-4.6-0.9
		c-1.1-0.4-2.1-1-2.9-1.9c-0.8-0.8-1.5-1.8-1.9-2.9c-0.3-0.9-0.8-2.2-0.9-4.6C4.6,32.5,4.5,31.7,4.5,25s0-7.5,0.1-10.1
		c0.1-2.4,0.5-3.8,0.9-4.6c0.4-1.1,1-2.1,1.9-2.9c0.8-0.8,1.8-1.5,2.9-1.9c0.9-0.3,2.2-0.8,4.6-0.9c2.6-0.1,3.4-0.1,10.1-0.1
		c6.7,0,7.5,0,10.1,0.1c2.4,0.1,3.8,0.5,4.6,0.9c1.1,0.4,2.1,1,2.9,1.9c0.8,0.8,1.5,1.8,1.9,2.9c0.3,0.9,0.8,2.2,0.9,4.6
		c0.1,2.6,0.1,3.4,0.1,10.1S45.5,32.5,45.4,35.1z"/>
	<path class="st0" d="M25,12.2c-7.1,0-12.8,5.8-12.8,12.8S17.9,37.8,25,37.8c7.1,0,12.8-5.8,12.8-12.8S32.1,12.2,25,12.2z M25,33.3
		c-4.6,0-8.3-3.7-8.3-8.3c0-4.6,3.7-8.3,8.3-8.3c4.6,0,8.3,3.7,8.3,8.3C33.3,29.6,29.6,33.3,25,33.3z"/>
	<path class="st0" d="M38.4,8.7c-1.7,0-3,1.3-3,3c0,1.7,1.3,3,3,3c1.7,0,3-1.3,3-3C41.4,10,40,8.7,38.4,8.7z"/>
</g>
</svg>
